module gitlab.com/gitlab-org/security-products/dependency-scanning

require (
	github.com/Azure/go-ansiterm v0.0.0-20170929234023-d6e3b3328b78 // indirect
	github.com/Microsoft/go-winio v0.4.12 // indirect
	github.com/Nvveen/Gotty v0.0.0-20120604004816-cd527374f1e5 // indirect
	github.com/docker/distribution v2.7.1+incompatible // indirect
	github.com/docker/go-connections v0.4.0 // indirect
	github.com/docker/go-units v0.3.3 // indirect
	github.com/gogo/protobuf v1.2.0 // indirect
	github.com/google/go-cmp v0.3.0 // indirect
	github.com/gorilla/mux v1.7.2 // indirect
	github.com/pkg/errors v0.8.0 // indirect
	github.com/sirupsen/logrus v1.4.2 // indirect
	github.com/stretchr/testify v1.3.0 // indirect
	github.com/urfave/cli v1.20.0
	gitlab.com/gitlab-org/security-products/analyzers/bundler-audit/v2 v2.0.0
	gitlab.com/gitlab-org/security-products/analyzers/common/orchestrator/v2 v2.0.0-0.20190628143551-be881429535b
	gitlab.com/gitlab-org/security-products/analyzers/common/table/v2 v2.0.0-0.20190628143551-be881429535b
	gitlab.com/gitlab-org/security-products/analyzers/common/v2 v2.4.2
	gitlab.com/gitlab-org/security-products/analyzers/gemnasium-maven/v2 v2.2.0
	gitlab.com/gitlab-org/security-products/analyzers/gemnasium-python/v2 v2.2.0
	gitlab.com/gitlab-org/security-products/analyzers/gemnasium/v2 v2.2.2
	gitlab.com/gitlab-org/security-products/analyzers/retire.js/v2 v2.0.0
	golang.org/x/time v0.0.0-20190308202827-9d24e82272b4 // indirect
	google.golang.org/grpc v1.21.0 // indirect
	gotest.tools v2.2.0+incompatible // indirect
)
